{
 "font": {
  "fileName": "Spalte-Regular"
 }, 
 "generator": {
  "contextualShape": true, 
  "insideCornerRadius": 6, 
  "offset": 0, 
  "outsideCornerRadius": 0, 
  "width": 125
 }, 
 "inherit": [
  "./options/options.json"
 ], 
 "metadata": {
  "familyname": "Spalte", 
  "fontname": "Spalte-Regular", 
  "fullname": "Spalte Regular", 
  "more": {
   "English": {
    "Descriptor": "Made in the Type:Bits workshop at Mur.at, Graz (2018-10-06).", 
    "Designer": "Ana Isabel Carvalho, JoaK, Jogi Hofmüller, Ricardo Lafuente", 
    "Designer URL": "", 
    "License": "OFL", 
    "License URL": "http://scripts.sil.org/OFL", 
    "Manufacturer": "Manufactura Independente", 
    "SubFamily": "Regular", 
    "Trademark": "", 
    "Vendor URL": "http://manufacturaindependente.org"
   }
  }, 
  "weight": "Regular"
 }
}
